﻿ 2017-08-14 07:21:18,944 [P34508/D2/T93] ERROR Umbraco.Web.Strategies.ServerRegistrationEventHandler - Failed to update server record in database.
System.Data.SqlClient.SqlException (0x80131904): A transport-level error has occurred when receiving results from the server. (provider: TCP Provider, error: 0 - The network connection was aborted by the local system.) ---> System.ComponentModel.Win32Exception (0x80004005): The network connection was aborted by the local system
   at System.Data.SqlClient.SqlConnection.OnError(SqlException exception, Boolean breakConnection, Action`1 wrapCloseInAction)
   at System.Data.SqlClient.TdsParser.ThrowExceptionAndWarning(TdsParserStateObject stateObj, Boolean callerHasConnectionLock, Boolean asyncClose)
   at System.Data.SqlClient.TdsParserStateObject.ReadSniError(TdsParserStateObject stateObj, UInt32 error)
   at System.Data.SqlClient.TdsParserStateObject.ReadSniSyncOverAsync()
   at System.Data.SqlClient.TdsParserStateObject.TryReadNetworkPacket()
   at System.Data.SqlClient.TdsParserStateObject.TryPrepareBuffer()
   at System.Data.SqlClient.TdsParserStateObject.TryReadByte(Byte& value)
   at System.Data.SqlClient.TdsParser.TryRun(RunBehavior runBehavior, SqlCommand cmdHandler, SqlDataReader dataStream, BulkCopySimpleResultSet bulkCopyHandler, TdsParserStateObject stateObj, Boolean& dataReady)
   at System.Data.SqlClient.TdsParser.Run(RunBehavior runBehavior, SqlCommand cmdHandler, SqlDataReader dataStream, BulkCopySimpleResultSet bulkCopyHandler, TdsParserStateObject stateObj)
   at System.Data.SqlClient.TdsParser.TdsExecuteTransactionManagerRequest(Byte[] buffer, TransactionManagerRequestType request, String transactionName, TransactionManagerIsolationLevel isoLevel, Int32 timeout, SqlInternalTransaction transaction, TdsParserStateObject stateObj, Boolean isDelegateControlRequest)
   at System.Data.SqlClient.SqlInternalConnectionTds.ExecuteTransactionYukon(TransactionRequest transactionRequest, String transactionName, IsolationLevel iso, SqlInternalTransaction internalTransaction, Boolean isDelegateControlRequest)
   at System.Data.SqlClient.SqlInternalConnection.BeginSqlTransaction(IsolationLevel iso, String transactionName, Boolean shouldReconnect)
   at System.Data.SqlClient.SqlConnection.BeginTransaction(IsolationLevel iso, String transactionName)
   at System.Data.SqlClient.SqlConnection.BeginDbTransaction(IsolationLevel isolationLevel)
   at Umbraco.Core.Persistence.Database.OpenSharedConnection()
   at Umbraco.Core.Persistence.Database.BeginTransaction(IsolationLevel isolationLevel)
   at Umbraco.Core.Scoping.Scope.get_Database()
   at Umbraco.Core.Persistence.LockingRepository`1.WithWriteLocked(Action`1 action, Boolean autoCommit)
   at Umbraco.Core.Services.ServerRegistrationService.TouchServer(String serverAddress, String serverIdentity, TimeSpan staleTimeout)
   at Umbraco.Web.Strategies.ServerRegistrationEventHandler.TouchServerTask.PerformRun()
ClientConnectionId:ab362afc-7d10-4f61-af50-a6f987d7ab41
Error Number:1236,State:0,Class:20
 2017-08-14 07:21:30,887 [P34508/D2/T74] INFO  umbraco.content - Save Xml to file...
 2017-08-14 07:21:31,012 [P34508/D2/T74] INFO  umbraco.content - Saved Xml to file.
 2017-08-14 07:22:16,028 [P34508/D2/T90] INFO  umbraco.content - Save Xml to file...
 2017-08-14 07:22:16,253 [P34508/D2/T90] INFO  umbraco.content - Saved Xml to file.
 2017-08-14 09:01:54,881 [P34508/D2/T214] ERROR Umbraco.Web.Scheduling.ScheduledPublishing - Failed (at "http://localhost:8095/umbraco").
System.Data.SqlClient.SqlException (0x80131904): A transport-level error has occurred when receiving results from the server. (provider: TCP Provider, error: 0 - The semaphore timeout period has expired.) ---> System.ComponentModel.Win32Exception (0x80004005): The semaphore timeout period has expired
   at System.Data.SqlClient.SqlConnection.OnError(SqlException exception, Boolean breakConnection, Action`1 wrapCloseInAction)
   at System.Data.SqlClient.TdsParser.ThrowExceptionAndWarning(TdsParserStateObject stateObj, Boolean callerHasConnectionLock, Boolean asyncClose)
   at System.Data.SqlClient.TdsParserStateObject.ReadSniError(TdsParserStateObject stateObj, UInt32 error)
   at System.Data.SqlClient.TdsParserStateObject.ReadSniSyncOverAsync()
   at System.Data.SqlClient.TdsParserStateObject.TryReadNetworkPacket()
   at System.Data.SqlClient.TdsParserStateObject.TryPrepareBuffer()
   at System.Data.SqlClient.TdsParserStateObject.TryReadByte(Byte& value)
   at System.Data.SqlClient.TdsParser.TryRun(RunBehavior runBehavior, SqlCommand cmdHandler, SqlDataReader dataStream, BulkCopySimpleResultSet bulkCopyHandler, TdsParserStateObject stateObj, Boolean& dataReady)
   at System.Data.SqlClient.TdsParser.Run(RunBehavior runBehavior, SqlCommand cmdHandler, SqlDataReader dataStream, BulkCopySimpleResultSet bulkCopyHandler, TdsParserStateObject stateObj)
   at System.Data.SqlClient.TdsParser.TdsExecuteTransactionManagerRequest(Byte[] buffer, TransactionManagerRequestType request, String transactionName, TransactionManagerIsolationLevel isoLevel, Int32 timeout, SqlInternalTransaction transaction, TdsParserStateObject stateObj, Boolean isDelegateControlRequest)
   at System.Data.SqlClient.SqlInternalConnectionTds.ExecuteTransactionYukon(TransactionRequest transactionRequest, String transactionName, IsolationLevel iso, SqlInternalTransaction internalTransaction, Boolean isDelegateControlRequest)
   at System.Data.SqlClient.SqlInternalConnection.BeginSqlTransaction(IsolationLevel iso, String transactionName, Boolean shouldReconnect)
   at System.Data.SqlClient.SqlConnection.BeginTransaction(IsolationLevel iso, String transactionName)
   at System.Data.SqlClient.SqlConnection.BeginDbTransaction(IsolationLevel isolationLevel)
   at Umbraco.Core.Persistence.Database.OpenSharedConnection()
   at Umbraco.Core.Persistence.Database.BeginTransaction(IsolationLevel isolationLevel)
   at Umbraco.Core.Scoping.Scope.get_Database()
   at Umbraco.Core.Scoping.Scope.get_Database()
   at Umbraco.Core.Persistence.Repositories.UserRepository.PerformGet(Int32 id)
   at Umbraco.Core.Cache.DefaultRepositoryCachePolicy`2.Get(TId id, Func`2 performGet, Func`2 performGetAll)
   at Umbraco.Core.Services.UserService.GetUserById(Int32 id)
   at Umbraco.Web.Mvc.AdminTokenAuthorizeAttribute.GetAuthHeaderVal(ApplicationContext appContext)
   at Umbraco.Web.Mvc.AdminTokenAuthorizeAttribute.GetAuthenticationHeaderValue(ApplicationContext appContext)
   at Umbraco.Web.Scheduling.ScheduledPublishing.<PerformRunAsync>d__9.MoveNext()
ClientConnectionId:804242fb-d04a-4631-933d-7104ff299a0d
Error Number:121,State:0,Class:20
 2017-08-14 09:02:32,568 [P34508/D2/T219] ERROR Umbraco.Core.UmbracoApplicationBase - An unhandled exception occurred
System.Data.SqlClient.SqlException (0x80131904): A network-related or instance-specific error occurred while establishing a connection to SQL Server. The server was not found or was not accessible. Verify that the instance name is correct and that SQL Server is configured to allow remote connections. (provider: Named Pipes Provider, error: 40 - Could not open a connection to SQL Server) ---> System.ComponentModel.Win32Exception (0x80004005): The network path was not found
   at System.Data.SqlClient.SqlInternalConnectionTds..ctor(DbConnectionPoolIdentity identity, SqlConnectionString connectionOptions, SqlCredential credential, Object providerInfo, String newPassword, SecureString newSecurePassword, Boolean redirectedUserInstance, SqlConnectionString userConnectionOptions, SessionData reconnectSessionData, DbConnectionPool pool, String accessToken, Boolean applyTransientFaultHandling)
   at System.Data.SqlClient.SqlConnectionFactory.CreateConnection(DbConnectionOptions options, DbConnectionPoolKey poolKey, Object poolGroupProviderInfo, DbConnectionPool pool, DbConnection owningConnection, DbConnectionOptions userOptions)
   at System.Data.ProviderBase.DbConnectionFactory.CreatePooledConnection(DbConnectionPool pool, DbConnection owningObject, DbConnectionOptions options, DbConnectionPoolKey poolKey, DbConnectionOptions userOptions)
   at System.Data.ProviderBase.DbConnectionPool.CreateObject(DbConnection owningObject, DbConnectionOptions userOptions, DbConnectionInternal oldConnection)
   at System.Data.ProviderBase.DbConnectionPool.UserCreateRequest(DbConnection owningObject, DbConnectionOptions userOptions, DbConnectionInternal oldConnection)
   at System.Data.ProviderBase.DbConnectionPool.TryGetConnection(DbConnection owningObject, UInt32 waitForMultipleObjectsTimeout, Boolean allowCreate, Boolean onlyOneCheckConnection, DbConnectionOptions userOptions, DbConnectionInternal& connection)
   at System.Data.ProviderBase.DbConnectionPool.TryGetConnection(DbConnection owningObject, TaskCompletionSource`1 retry, DbConnectionOptions userOptions, DbConnectionInternal& connection)
   at System.Data.ProviderBase.DbConnectionFactory.TryGetConnection(DbConnection owningConnection, TaskCompletionSource`1 retry, DbConnectionOptions userOptions, DbConnectionInternal oldConnection, DbConnectionInternal& connection)
   at System.Data.ProviderBase.DbConnectionInternal.TryOpenConnectionInternal(DbConnection outerConnection, DbConnectionFactory connectionFactory, TaskCompletionSource`1 retry, DbConnectionOptions userOptions)
   at System.Data.SqlClient.SqlConnection.TryOpenInner(TaskCompletionSource`1 retry)
   at System.Data.SqlClient.SqlConnection.TryOpen(TaskCompletionSource`1 retry)
   at System.Data.SqlClient.SqlConnection.Open()
   at Umbraco.Core.Persistence.FaultHandling.RetryPolicy.<>c__DisplayClass1.<ExecuteAction>b__0()
   at Umbraco.Core.Persistence.FaultHandling.RetryPolicy.ExecuteAction[TResult](Func`1 func)
   at Umbraco.Core.Persistence.Database.OpenSharedConnection()
   at Umbraco.Core.Persistence.Database.<Query>d__7`1.MoveNext()
   at System.Collections.Generic.List`1..ctor(IEnumerable`1 collection)
   at System.Linq.Enumerable.ToList[TSource](IEnumerable`1 source)
   at Umbraco.Core.Sync.DatabaseServerMessenger.ProcessDatabaseInstructions()
   at Umbraco.Core.Sync.DatabaseServerMessenger.Sync()
   at Umbraco.Web.UmbracoModule.OnRouteAttempt(RoutableAttemptEventArgs args)
   at Umbraco.Web.UmbracoModule.ProcessRequest(HttpContextBase httpContext)
   at System.Web.HttpApplication.SyncEventExecutionStep.System.Web.HttpApplication.IExecutionStep.Execute()
   at System.Web.HttpApplication.ExecuteStep(IExecutionStep step, Boolean& completedSynchronously)
ClientConnectionId:00000000-0000-0000-0000-000000000000
Error Number:53,State:0,Class:20
 2017-08-14 09:03:27,995 [P34508/D2/T219] ERROR Umbraco.Web.Scheduling.ScheduledPublishing - Failed (at "http://localhost:8095/umbraco").
System.Data.SqlClient.SqlException (0x80131904): A network-related or instance-specific error occurred while establishing a connection to SQL Server. The server was not found or was not accessible. Verify that the instance name is correct and that SQL Server is configured to allow remote connections. (provider: Named Pipes Provider, error: 40 - Could not open a connection to SQL Server) ---> System.ComponentModel.Win32Exception (0x80004005): The network path was not found
   at System.Data.SqlClient.SqlInternalConnectionTds..ctor(DbConnectionPoolIdentity identity, SqlConnectionString connectionOptions, SqlCredential credential, Object providerInfo, String newPassword, SecureString newSecurePassword, Boolean redirectedUserInstance, SqlConnectionString userConnectionOptions, SessionData reconnectSessionData, DbConnectionPool pool, String accessToken, Boolean applyTransientFaultHandling)
   at System.Data.SqlClient.SqlConnectionFactory.CreateConnection(DbConnectionOptions options, DbConnectionPoolKey poolKey, Object poolGroupProviderInfo, DbConnectionPool pool, DbConnection owningConnection, DbConnectionOptions userOptions)
   at System.Data.ProviderBase.DbConnectionFactory.CreatePooledConnection(DbConnectionPool pool, DbConnection owningObject, DbConnectionOptions options, DbConnectionPoolKey poolKey, DbConnectionOptions userOptions)
   at System.Data.ProviderBase.DbConnectionPool.CreateObject(DbConnection owningObject, DbConnectionOptions userOptions, DbConnectionInternal oldConnection)
   at System.Data.ProviderBase.DbConnectionPool.UserCreateRequest(DbConnection owningObject, DbConnectionOptions userOptions, DbConnectionInternal oldConnection)
   at System.Data.ProviderBase.DbConnectionPool.TryGetConnection(DbConnection owningObject, UInt32 waitForMultipleObjectsTimeout, Boolean allowCreate, Boolean onlyOneCheckConnection, DbConnectionOptions userOptions, DbConnectionInternal& connection)
   at System.Data.ProviderBase.DbConnectionPool.TryGetConnection(DbConnection owningObject, TaskCompletionSource`1 retry, DbConnectionOptions userOptions, DbConnectionInternal& connection)
   at System.Data.ProviderBase.DbConnectionFactory.TryGetConnection(DbConnection owningConnection, TaskCompletionSource`1 retry, DbConnectionOptions userOptions, DbConnectionInternal oldConnection, DbConnectionInternal& connection)
   at System.Data.ProviderBase.DbConnectionInternal.TryOpenConnectionInternal(DbConnection outerConnection, DbConnectionFactory connectionFactory, TaskCompletionSource`1 retry, DbConnectionOptions userOptions)
   at System.Data.SqlClient.SqlConnection.TryOpenInner(TaskCompletionSource`1 retry)
   at System.Data.SqlClient.SqlConnection.TryOpen(TaskCompletionSource`1 retry)
   at System.Data.SqlClient.SqlConnection.Open()
   at Umbraco.Core.Persistence.FaultHandling.RetryPolicy.<>c__DisplayClass1.<ExecuteAction>b__0()
   at Umbraco.Core.Persistence.FaultHandling.RetryPolicy.ExecuteAction[TResult](Func`1 func)
   at Umbraco.Core.Persistence.Database.OpenSharedConnection()
   at Umbraco.Core.Persistence.Database.BeginTransaction(IsolationLevel isolationLevel)
   at Umbraco.Core.Scoping.Scope.get_Database()
   at Umbraco.Core.Scoping.Scope.get_Database()
   at Umbraco.Core.Persistence.Repositories.UserRepository.PerformGet(Int32 id)
   at Umbraco.Core.Cache.DefaultRepositoryCachePolicy`2.Get(TId id, Func`2 performGet, Func`2 performGetAll)
   at Umbraco.Core.Services.UserService.GetUserById(Int32 id)
   at Umbraco.Web.Mvc.AdminTokenAuthorizeAttribute.GetAuthHeaderVal(ApplicationContext appContext)
   at Umbraco.Web.Mvc.AdminTokenAuthorizeAttribute.GetAuthenticationHeaderValue(ApplicationContext appContext)
   at Umbraco.Web.Scheduling.ScheduledPublishing.<PerformRunAsync>d__9.MoveNext()
ClientConnectionId:00000000-0000-0000-0000-000000000000
Error Number:53,State:0,Class:20
 2017-08-14 09:04:47,458 [P34508/D2/T229] ERROR Umbraco.Web.Scheduling.ScheduledPublishing - Failed (at "http://localhost:8095/umbraco").
System.Data.SqlClient.SqlException (0x80131904): A network-related or instance-specific error occurred while establishing a connection to SQL Server. The server was not found or was not accessible. Verify that the instance name is correct and that SQL Server is configured to allow remote connections. (provider: Named Pipes Provider, error: 40 - Could not open a connection to SQL Server) ---> System.ComponentModel.Win32Exception (0x80004005): The network path was not found
   at System.Data.SqlClient.SqlInternalConnectionTds..ctor(DbConnectionPoolIdentity identity, SqlConnectionString connectionOptions, SqlCredential credential, Object providerInfo, String newPassword, SecureString newSecurePassword, Boolean redirectedUserInstance, SqlConnectionString userConnectionOptions, SessionData reconnectSessionData, DbConnectionPool pool, String accessToken, Boolean applyTransientFaultHandling)
   at System.Data.SqlClient.SqlConnectionFactory.CreateConnection(DbConnectionOptions options, DbConnectionPoolKey poolKey, Object poolGroupProviderInfo, DbConnectionPool pool, DbConnection owningConnection, DbConnectionOptions userOptions)
   at System.Data.ProviderBase.DbConnectionFactory.CreatePooledConnection(DbConnectionPool pool, DbConnection owningObject, DbConnectionOptions options, DbConnectionPoolKey poolKey, DbConnectionOptions userOptions)
   at System.Data.ProviderBase.DbConnectionPool.CreateObject(DbConnection owningObject, DbConnectionOptions userOptions, DbConnectionInternal oldConnection)
   at System.Data.ProviderBase.DbConnectionPool.UserCreateRequest(DbConnection owningObject, DbConnectionOptions userOptions, DbConnectionInternal oldConnection)
   at System.Data.ProviderBase.DbConnectionPool.TryGetConnection(DbConnection owningObject, UInt32 waitForMultipleObjectsTimeout, Boolean allowCreate, Boolean onlyOneCheckConnection, DbConnectionOptions userOptions, DbConnectionInternal& connection)
   at System.Data.ProviderBase.DbConnectionPool.TryGetConnection(DbConnection owningObject, TaskCompletionSource`1 retry, DbConnectionOptions userOptions, DbConnectionInternal& connection)
   at System.Data.ProviderBase.DbConnectionFactory.TryGetConnection(DbConnection owningConnection, TaskCompletionSource`1 retry, DbConnectionOptions userOptions, DbConnectionInternal oldConnection, DbConnectionInternal& connection)
   at System.Data.ProviderBase.DbConnectionInternal.TryOpenConnectionInternal(DbConnection outerConnection, DbConnectionFactory connectionFactory, TaskCompletionSource`1 retry, DbConnectionOptions userOptions)
   at System.Data.SqlClient.SqlConnection.TryOpenInner(TaskCompletionSource`1 retry)
   at System.Data.SqlClient.SqlConnection.TryOpen(TaskCompletionSource`1 retry)
   at System.Data.SqlClient.SqlConnection.Open()
   at Umbraco.Core.Persistence.FaultHandling.RetryPolicy.<>c__DisplayClass1.<ExecuteAction>b__0()
   at Umbraco.Core.Persistence.FaultHandling.RetryPolicy.ExecuteAction[TResult](Func`1 func)
   at Umbraco.Core.Persistence.Database.OpenSharedConnection()
   at Umbraco.Core.Persistence.Database.BeginTransaction(IsolationLevel isolationLevel)
   at Umbraco.Core.Scoping.Scope.get_Database()
   at Umbraco.Core.Scoping.Scope.get_Database()
   at Umbraco.Core.Persistence.Repositories.UserRepository.PerformGet(Int32 id)
   at Umbraco.Core.Cache.DefaultRepositoryCachePolicy`2.Get(TId id, Func`2 performGet, Func`2 performGetAll)
   at Umbraco.Core.Services.UserService.GetUserById(Int32 id)
   at Umbraco.Web.Mvc.AdminTokenAuthorizeAttribute.GetAuthHeaderVal(ApplicationContext appContext)
   at Umbraco.Web.Mvc.AdminTokenAuthorizeAttribute.GetAuthenticationHeaderValue(ApplicationContext appContext)
   at Umbraco.Web.Scheduling.ScheduledPublishing.<PerformRunAsync>d__9.MoveNext()
ClientConnectionId:00000000-0000-0000-0000-000000000000
Error Number:53,State:0,Class:20
 2017-08-14 09:06:01,774 [P34508/D2/T213] ERROR Umbraco.Web.Scheduling.ScheduledPublishing - Failed (at "http://localhost:8095/umbraco").
System.Data.SqlClient.SqlException (0x80131904): A network-related or instance-specific error occurred while establishing a connection to SQL Server. The server was not found or was not accessible. Verify that the instance name is correct and that SQL Server is configured to allow remote connections. (provider: Named Pipes Provider, error: 40 - Could not open a connection to SQL Server) ---> System.ComponentModel.Win32Exception (0x80004005): The network path was not found
   at System.Data.SqlClient.SqlInternalConnectionTds..ctor(DbConnectionPoolIdentity identity, SqlConnectionString connectionOptions, SqlCredential credential, Object providerInfo, String newPassword, SecureString newSecurePassword, Boolean redirectedUserInstance, SqlConnectionString userConnectionOptions, SessionData reconnectSessionData, DbConnectionPool pool, String accessToken, Boolean applyTransientFaultHandling)
   at System.Data.SqlClient.SqlConnectionFactory.CreateConnection(DbConnectionOptions options, DbConnectionPoolKey poolKey, Object poolGroupProviderInfo, DbConnectionPool pool, DbConnection owningConnection, DbConnectionOptions userOptions)
   at System.Data.ProviderBase.DbConnectionFactory.CreatePooledConnection(DbConnectionPool pool, DbConnection owningObject, DbConnectionOptions options, DbConnectionPoolKey poolKey, DbConnectionOptions userOptions)
   at System.Data.ProviderBase.DbConnectionPool.CreateObject(DbConnection owningObject, DbConnectionOptions userOptions, DbConnectionInternal oldConnection)
   at System.Data.ProviderBase.DbConnectionPool.UserCreateRequest(DbConnection owningObject, DbConnectionOptions userOptions, DbConnectionInternal oldConnection)
   at System.Data.ProviderBase.DbConnectionPool.TryGetConnection(DbConnection owningObject, UInt32 waitForMultipleObjectsTimeout, Boolean allowCreate, Boolean onlyOneCheckConnection, DbConnectionOptions userOptions, DbConnectionInternal& connection)
   at System.Data.ProviderBase.DbConnectionPool.TryGetConnection(DbConnection owningObject, TaskCompletionSource`1 retry, DbConnectionOptions userOptions, DbConnectionInternal& connection)
   at System.Data.ProviderBase.DbConnectionFactory.TryGetConnection(DbConnection owningConnection, TaskCompletionSource`1 retry, DbConnectionOptions userOptions, DbConnectionInternal oldConnection, DbConnectionInternal& connection)
   at System.Data.ProviderBase.DbConnectionInternal.TryOpenConnectionInternal(DbConnection outerConnection, DbConnectionFactory connectionFactory, TaskCompletionSource`1 retry, DbConnectionOptions userOptions)
   at System.Data.SqlClient.SqlConnection.TryOpenInner(TaskCompletionSource`1 retry)
   at System.Data.SqlClient.SqlConnection.TryOpen(TaskCompletionSource`1 retry)
   at System.Data.SqlClient.SqlConnection.Open()
   at Umbraco.Core.Persistence.FaultHandling.RetryPolicy.<>c__DisplayClass1.<ExecuteAction>b__0()
   at Umbraco.Core.Persistence.FaultHandling.RetryPolicy.ExecuteAction[TResult](Func`1 func)
   at Umbraco.Core.Persistence.Database.OpenSharedConnection()
   at Umbraco.Core.Persistence.Database.BeginTransaction(IsolationLevel isolationLevel)
   at Umbraco.Core.Scoping.Scope.get_Database()
   at Umbraco.Core.Scoping.Scope.get_Database()
   at Umbraco.Core.Persistence.Repositories.UserRepository.PerformGet(Int32 id)
   at Umbraco.Core.Cache.DefaultRepositoryCachePolicy`2.Get(TId id, Func`2 performGet, Func`2 performGetAll)
   at Umbraco.Core.Services.UserService.GetUserById(Int32 id)
   at Umbraco.Web.Mvc.AdminTokenAuthorizeAttribute.GetAuthHeaderVal(ApplicationContext appContext)
   at Umbraco.Web.Mvc.AdminTokenAuthorizeAttribute.GetAuthenticationHeaderValue(ApplicationContext appContext)
   at Umbraco.Web.Scheduling.ScheduledPublishing.<PerformRunAsync>d__9.MoveNext()
ClientConnectionId:00000000-0000-0000-0000-000000000000
Error Number:53,State:0,Class:20
 2017-08-14 09:07:16,461 [P34508/D2/T215] ERROR Umbraco.Web.Scheduling.ScheduledPublishing - Failed (at "http://localhost:8095/umbraco").
System.Data.SqlClient.SqlException (0x80131904): A network-related or instance-specific error occurred while establishing a connection to SQL Server. The server was not found or was not accessible. Verify that the instance name is correct and that SQL Server is configured to allow remote connections. (provider: Named Pipes Provider, error: 40 - Could not open a connection to SQL Server) ---> System.ComponentModel.Win32Exception (0x80004005): The network path was not found
   at System.Data.SqlClient.SqlInternalConnectionTds..ctor(DbConnectionPoolIdentity identity, SqlConnectionString connectionOptions, SqlCredential credential, Object providerInfo, String newPassword, SecureString newSecurePassword, Boolean redirectedUserInstance, SqlConnectionString userConnectionOptions, SessionData reconnectSessionData, DbConnectionPool pool, String accessToken, Boolean applyTransientFaultHandling)
   at System.Data.SqlClient.SqlConnectionFactory.CreateConnection(DbConnectionOptions options, DbConnectionPoolKey poolKey, Object poolGroupProviderInfo, DbConnectionPool pool, DbConnection owningConnection, DbConnectionOptions userOptions)
   at System.Data.ProviderBase.DbConnectionFactory.CreatePooledConnection(DbConnectionPool pool, DbConnection owningObject, DbConnectionOptions options, DbConnectionPoolKey poolKey, DbConnectionOptions userOptions)
   at System.Data.ProviderBase.DbConnectionPool.CreateObject(DbConnection owningObject, DbConnectionOptions userOptions, DbConnectionInternal oldConnection)
   at System.Data.ProviderBase.DbConnectionPool.UserCreateRequest(DbConnection owningObject, DbConnectionOptions userOptions, DbConnectionInternal oldConnection)
   at System.Data.ProviderBase.DbConnectionPool.TryGetConnection(DbConnection owningObject, UInt32 waitForMultipleObjectsTimeout, Boolean allowCreate, Boolean onlyOneCheckConnection, DbConnectionOptions userOptions, DbConnectionInternal& connection)
   at System.Data.ProviderBase.DbConnectionPool.TryGetConnection(DbConnection owningObject, TaskCompletionSource`1 retry, DbConnectionOptions userOptions, DbConnectionInternal& connection)
   at System.Data.ProviderBase.DbConnectionFactory.TryGetConnection(DbConnection owningConnection, TaskCompletionSource`1 retry, DbConnectionOptions userOptions, DbConnectionInternal oldConnection, DbConnectionInternal& connection)
   at System.Data.ProviderBase.DbConnectionInternal.TryOpenConnectionInternal(DbConnection outerConnection, DbConnectionFactory connectionFactory, TaskCompletionSource`1 retry, DbConnectionOptions userOptions)
   at System.Data.SqlClient.SqlConnection.TryOpenInner(TaskCompletionSource`1 retry)
   at System.Data.SqlClient.SqlConnection.TryOpen(TaskCompletionSource`1 retry)
   at System.Data.SqlClient.SqlConnection.Open()
   at Umbraco.Core.Persistence.FaultHandling.RetryPolicy.<>c__DisplayClass1.<ExecuteAction>b__0()
   at Umbraco.Core.Persistence.FaultHandling.RetryPolicy.ExecuteAction[TResult](Func`1 func)
   at Umbraco.Core.Persistence.Database.OpenSharedConnection()
   at Umbraco.Core.Persistence.Database.BeginTransaction(IsolationLevel isolationLevel)
   at Umbraco.Core.Scoping.Scope.get_Database()
   at Umbraco.Core.Scoping.Scope.get_Database()
   at Umbraco.Core.Persistence.Repositories.UserRepository.PerformGet(Int32 id)
   at Umbraco.Core.Cache.DefaultRepositoryCachePolicy`2.Get(TId id, Func`2 performGet, Func`2 performGetAll)
   at Umbraco.Core.Services.UserService.GetUserById(Int32 id)
   at Umbraco.Web.Mvc.AdminTokenAuthorizeAttribute.GetAuthHeaderVal(ApplicationContext appContext)
   at Umbraco.Web.Mvc.AdminTokenAuthorizeAttribute.GetAuthenticationHeaderValue(ApplicationContext appContext)
   at Umbraco.Web.Scheduling.ScheduledPublishing.<PerformRunAsync>d__9.MoveNext()
ClientConnectionId:00000000-0000-0000-0000-000000000000
Error Number:53,State:0,Class:20
 2017-08-14 09:07:51,575 [P34508/D2/T244] ERROR Umbraco.Core.UmbracoApplicationBase - An unhandled exception occurred
System.Data.SqlClient.SqlException (0x80131904): A network-related or instance-specific error occurred while establishing a connection to SQL Server. The server was not found or was not accessible. Verify that the instance name is correct and that SQL Server is configured to allow remote connections. (provider: Named Pipes Provider, error: 40 - Could not open a connection to SQL Server) ---> System.ComponentModel.Win32Exception (0x80004005): The network path was not found
   at System.Data.SqlClient.SqlInternalConnectionTds..ctor(DbConnectionPoolIdentity identity, SqlConnectionString connectionOptions, SqlCredential credential, Object providerInfo, String newPassword, SecureString newSecurePassword, Boolean redirectedUserInstance, SqlConnectionString userConnectionOptions, SessionData reconnectSessionData, DbConnectionPool pool, String accessToken, Boolean applyTransientFaultHandling)
   at System.Data.SqlClient.SqlConnectionFactory.CreateConnection(DbConnectionOptions options, DbConnectionPoolKey poolKey, Object poolGroupProviderInfo, DbConnectionPool pool, DbConnection owningConnection, DbConnectionOptions userOptions)
   at System.Data.ProviderBase.DbConnectionFactory.CreatePooledConnection(DbConnectionPool pool, DbConnection owningObject, DbConnectionOptions options, DbConnectionPoolKey poolKey, DbConnectionOptions userOptions)
   at System.Data.ProviderBase.DbConnectionPool.CreateObject(DbConnection owningObject, DbConnectionOptions userOptions, DbConnectionInternal oldConnection)
   at System.Data.ProviderBase.DbConnectionPool.UserCreateRequest(DbConnection owningObject, DbConnectionOptions userOptions, DbConnectionInternal oldConnection)
   at System.Data.ProviderBase.DbConnectionPool.TryGetConnection(DbConnection owningObject, UInt32 waitForMultipleObjectsTimeout, Boolean allowCreate, Boolean onlyOneCheckConnection, DbConnectionOptions userOptions, DbConnectionInternal& connection)
   at System.Data.ProviderBase.DbConnectionPool.TryGetConnection(DbConnection owningObject, TaskCompletionSource`1 retry, DbConnectionOptions userOptions, DbConnectionInternal& connection)
   at System.Data.ProviderBase.DbConnectionFactory.TryGetConnection(DbConnection owningConnection, TaskCompletionSource`1 retry, DbConnectionOptions userOptions, DbConnectionInternal oldConnection, DbConnectionInternal& connection)
   at System.Data.ProviderBase.DbConnectionInternal.TryOpenConnectionInternal(DbConnection outerConnection, DbConnectionFactory connectionFactory, TaskCompletionSource`1 retry, DbConnectionOptions userOptions)
   at System.Data.SqlClient.SqlConnection.TryOpenInner(TaskCompletionSource`1 retry)
   at System.Data.SqlClient.SqlConnection.TryOpen(TaskCompletionSource`1 retry)
   at System.Data.SqlClient.SqlConnection.Open()
   at Umbraco.Core.Persistence.FaultHandling.RetryPolicy.<>c__DisplayClass1.<ExecuteAction>b__0()
   at Umbraco.Core.Persistence.FaultHandling.RetryPolicy.ExecuteAction[TResult](Func`1 func)
   at Umbraco.Core.Persistence.Database.OpenSharedConnection()
   at Umbraco.Core.Persistence.Database.<Query>d__7`1.MoveNext()
   at System.Collections.Generic.List`1..ctor(IEnumerable`1 collection)
   at System.Linq.Enumerable.ToList[TSource](IEnumerable`1 source)
   at Umbraco.Core.Sync.DatabaseServerMessenger.ProcessDatabaseInstructions()
   at Umbraco.Core.Sync.DatabaseServerMessenger.Sync()
   at Umbraco.Web.UmbracoModule.OnRouteAttempt(RoutableAttemptEventArgs args)
   at Umbraco.Web.UmbracoModule.ProcessRequest(HttpContextBase httpContext)
   at System.Web.HttpApplication.SyncEventExecutionStep.System.Web.HttpApplication.IExecutionStep.Execute()
   at System.Web.HttpApplication.ExecuteStep(IExecutionStep step, Boolean& completedSynchronously)
ClientConnectionId:00000000-0000-0000-0000-000000000000
Error Number:53,State:0,Class:20
 2017-08-14 09:08:07,644 [P34508/D2/T240] INFO  Umbraco.Web.Scheduling.BackgroundTaskRunner - [ScheduledPublishing] Terminating
 2017-08-14 09:08:07,644 [P34508/D2/T240] INFO  Umbraco.Web.Scheduling.BackgroundTaskRunner - [ScheduledPublishing] Waiting for tasks to complete
 2017-08-14 09:08:07,644 [P34508/D2/T240] INFO  Umbraco.Web.Scheduling.BackgroundTaskRunner - [Umbraco.Web.Scheduling.IBackgroundTask] Terminating
 2017-08-14 09:08:07,644 [P34508/D2/T240] INFO  Umbraco.Web.Scheduling.BackgroundTaskRunner - [Umbraco.Web.Scheduling.IBackgroundTask] Waiting for tasks to complete
 2017-08-14 09:08:07,847 [P34508/D2/T245] INFO  Umbraco.Web.Scheduling.BackgroundTaskRunner - [ScheduledPublishing] Tasks completed, terminated
 2017-08-14 09:08:07,847 [P34508/D2/T240] INFO  Umbraco.Web.Scheduling.BackgroundTaskRunner - [Umbraco.Web.Scheduling.IBackgroundTask] Tasks completed, terminated
 2017-08-14 09:08:08,066 [P34508/D2/T240] INFO  Umbraco.Web.Scheduling.BackgroundTaskRunner - [LogScrubber] Terminating
 2017-08-14 09:08:08,066 [P34508/D2/T240] INFO  Umbraco.Web.Scheduling.BackgroundTaskRunner - [LogScrubber] Waiting for tasks to complete
 2017-08-14 09:08:08,066 [P34508/D2/T244] INFO  Umbraco.Web.Scheduling.BackgroundTaskRunner - [LogScrubber] Tasks completed, terminated
 2017-08-14 09:08:09,113 [P34508/D2/T240] INFO  Umbraco.Core.MainDom - Stopping...
 2017-08-14 09:08:09,300 [P34508/D2/T240] INFO  Umbraco.Core.MainDom - Released MainDom.
 2017-08-14 09:08:09,300 [P34508/D2/T240] INFO  Umbraco.Web.Scheduling.BackgroundTaskRunner - [ScheduledTasks] Terminating
 2017-08-14 09:08:09,300 [P34508/D2/T240] INFO  Umbraco.Web.Scheduling.BackgroundTaskRunner - [ScheduledTasks] Waiting for tasks to complete
 2017-08-14 09:08:09,300 [P34508/D2/T245] INFO  Umbraco.Web.Scheduling.BackgroundTaskRunner - [ScheduledTasks] Tasks completed, terminated
 2017-08-14 09:08:09,331 [P34508/D2/T240] INFO  Umbraco.Web.Scheduling.BackgroundTaskRunner - [KeepAlive] Terminating
 2017-08-14 09:08:09,331 [P34508/D2/T240] INFO  Umbraco.Web.Scheduling.BackgroundTaskRunner - [KeepAlive] Waiting for tasks to complete
 2017-08-14 09:08:09,331 [P34508/D2/T249] INFO  Umbraco.Web.Scheduling.BackgroundTaskRunner - [KeepAlive] Tasks completed, terminated
